<svg width="14" height="14" viewBox="0 0 14 14" fill="none" xmlns="http://www.w3.org/2000/svg">
<path d="M2.30796 13.3107L6.72467 8.89396L11.1414 13.3107L13.3497 11.1023L8.93302 6.6856L13.3497 2.2689L11.1414 0.0605469L6.72467 4.47725L2.30796 0.0605469L0.0996094 2.2689L4.51631 6.6856L0.0996094 11.1023L2.30796 13.3107Z" fill="#B3B3B3"/>
</svg>
assets\elements\images\icon\close2.svg