<svg width="19" height="19" viewBox="0 0 19 19" fill="none" xmlns="http://www.w3.org/2000/svg">
<rect x="0.599609" y="1.18555" width="17" height="17" fill="white" stroke="#073B60"/>
<rect x="3.09961" y="8.76245" width="12" height="1.84615" fill="#073B60" stroke="#073B60" stroke-width="0.75"/>
</svg>
