<svg width="25" height="25" viewBox="0 0 25 25" fill="none" xmlns="http://www.w3.org/2000/svg">
<path fill-rule="evenodd" clip-rule="evenodd" d="M12.1001 0.685547C18.7277 0.685547 24.1001 6.05795 24.1001 12.6855C24.1001 19.3131 18.7277 24.6855 12.1001 24.6855C5.4725 24.6855 0.100098 19.3131 0.100098 12.6855C0.100098 6.05795 5.4725 0.685547 12.1001 0.685547ZM13.3001 3.15995V4.28555C13.2998 4.5914 13.1826 4.88559 12.9727 5.10799C12.7627 5.33039 12.4758 5.46423 12.1704 5.48215C11.8651 5.50008 11.5644 5.40074 11.3299 5.20443C11.0954 5.00812 10.9446 4.72966 10.9085 4.42595L10.9001 4.28555V3.15995C8.83822 3.42032 6.9164 4.34236 5.42304 5.78769C3.92967 7.23302 2.94532 9.12368 2.6177 11.1759L2.5745 11.4855H3.7001C4.00595 11.4859 4.30014 11.603 4.52254 11.813C4.74494 12.0229 4.87878 12.3099 4.8967 12.6152C4.91463 12.9206 4.81529 13.2212 4.61898 13.4557C4.42267 13.6903 4.14421 13.841 3.8405 13.8771L3.7001 13.8855H2.5745C2.86446 16.179 3.97218 18.2909 5.6942 19.8332C7.41622 21.3756 9.63691 22.2448 11.9484 22.2813C14.2598 22.3178 16.5068 21.519 18.2767 20.0318C20.0465 18.5446 21.2203 16.4687 21.5825 14.1855L21.6257 13.8855H20.5001C20.1942 13.8852 19.9001 13.7681 19.6777 13.5581C19.4553 13.3482 19.3214 13.0612 19.3035 12.7559C19.2856 12.4505 19.3849 12.1499 19.5812 11.9153C19.7775 11.6808 20.056 11.5301 20.3597 11.4939L20.5001 11.4855H21.6257C21.3642 9.39291 20.4188 7.44524 18.9365 5.94515L16.0277 11.6559L15.8417 12.0087L15.4697 12.7407C15.0257 13.6047 14.5433 14.4855 13.8821 15.1467C12.7157 16.3119 10.7765 16.4535 9.5549 15.2307C8.3321 14.0091 8.4737 12.0699 9.6389 10.9035C10.2053 10.3371 10.9325 9.90155 11.6741 9.50915L12.7769 8.94395L13.7957 8.41115L18.8393 5.84915C17.3395 4.36708 15.3923 3.42174 13.3001 3.15995V3.15995ZM13.4945 11.2911L13.2425 11.4255L12.9833 11.5611C12.5009 11.8119 11.9969 12.0723 11.5769 12.3987L11.3357 12.6027L11.2481 12.7035C11.0165 13.0155 11.0861 13.3683 11.2517 13.5339C11.4173 13.6995 11.7701 13.7691 12.0821 13.5375L12.1853 13.4487L12.3869 13.2087C12.6473 12.8727 12.8669 12.4827 13.0721 12.0927L13.2245 11.8023C13.3145 11.6271 13.4045 11.4543 13.4945 11.2911V11.2911Z" fill="white"/>
</svg>
