<svg width="19" height="25" viewBox="0 0 19 25" fill="none" xmlns="http://www.w3.org/2000/svg">
<path d="M16.5996 9.42382C16.5996 12.4554 15.2473 13.9464 13.3063 16.0865C12.8385 16.6022 12.3366 17.1556 11.8111 17.7774C10.2924 19.5744 9.57914 21.1933 9.10716 22.2744C8.64064 21.1954 7.92604 19.5972 6.38814 17.7774C5.86267 17.1556 5.3607 16.6022 4.89294 16.0865C2.95189 13.9464 1.59961 12.4554 1.59961 9.42382C1.59961 5.39381 4.93233 2.08172 9.09961 2.08172C13.2669 2.08172 16.5996 5.39381 16.5996 9.42382Z" fill="#1F9BC6" stroke="#197C9E" stroke-width="3"/>
<path d="M14.2423 8.65702C14.2045 10.5371 13.6981 12.1635 12.4858 13.5611C11.462 14.7448 10.1527 15.5058 8.48245 15.5754C6.91454 15.6401 5.5352 15.1974 4.53842 14.0236C3.94035 13.3273 3.80565 12.5216 4.12354 11.6761C4.37678 10.9996 4.89942 10.6614 5.6699 10.6465C6.48888 10.6316 7.26476 10.8156 8.00831 11.119C8.52556 11.3279 9.04281 11.5268 9.63011 11.492C10.7347 11.4224 11.5213 10.8753 12.0439 10.0248C12.8845 8.662 12.9222 7.25445 12.2379 5.81705C12.0062 5.32963 11.7907 4.83723 11.5967 4.33987C11.4566 3.96684 11.5159 3.74302 11.7207 3.6336C11.9308 3.51921 12.1355 3.58884 12.4427 3.88726C12.8575 4.28516 13.1539 4.74771 13.4071 5.24508C13.9729 6.36416 14.2207 7.54292 14.2423 8.662V8.65702Z" fill="white"/>
</svg>
