<svg width="25" height="25" viewBox="0 0 25 25" fill="none" xmlns="http://www.w3.org/2000/svg">
<path d="M21.4334 3.35221V22.0189H2.76676V3.35221H21.4334ZM22.9001 0.685547H1.3001C0.633431 0.685547 0.100098 1.21888 0.100098 1.88555V23.4855C0.100098 24.0189 0.633431 24.6855 1.3001 24.6855H22.9001C23.4334 24.6855 24.1001 24.0189 24.1001 23.4855V1.88555C24.1001 1.21888 23.4334 0.685547 22.9001 0.685547V0.685547ZM10.7668 6.01888H18.7668V8.68555H10.7668V6.01888ZM10.7668 11.3522H18.7668V14.0189H10.7668V11.3522ZM10.7668 16.6855H18.7668V19.3522H10.7668V16.6855ZM5.43343 6.01888H8.1001V8.68555H5.43343V6.01888ZM5.43343 11.3522H8.1001V14.0189H5.43343V11.3522ZM5.43343 16.6855H8.1001V19.3522H5.43343V16.6855Z" fill="white"/>
</svg>
