<svg width="26" height="26" viewBox="0 0 26 26" fill="none" xmlns="http://www.w3.org/2000/svg">
<path d="M12.6001 0.310547C5.7001 0.310547 0.100098 5.91055 0.100098 12.8105C0.100098 19.7105 5.7001 25.3105 12.6001 25.3105C19.5001 25.3105 25.1001 19.7105 25.1001 12.8105C25.1001 5.91055 19.5001 0.310547 12.6001 0.310547ZM6.4376 20.6605C6.9751 19.5355 10.2501 18.4355 12.6001 18.4355C14.9501 18.4355 18.2376 19.5355 18.7626 20.6605C17.0626 22.0105 14.9251 22.8105 12.6001 22.8105C10.2751 22.8105 8.1376 22.0105 6.4376 20.6605ZM20.5501 18.848C18.7626 16.673 14.4251 15.9355 12.6001 15.9355C10.7751 15.9355 6.4376 16.673 4.6501 18.848C3.32216 17.1153 2.60173 14.9936 2.6001 12.8105C2.6001 7.29805 7.0876 2.81055 12.6001 2.81055C18.1126 2.81055 22.6001 7.29805 22.6001 12.8105C22.6001 15.0855 21.8251 17.173 20.5501 18.848V18.848ZM12.6001 5.31055C10.1751 5.31055 8.2251 7.26055 8.2251 9.68555C8.2251 12.1105 10.1751 14.0605 12.6001 14.0605C15.0251 14.0605 16.9751 12.1105 16.9751 9.68555C16.9751 7.26055 15.0251 5.31055 12.6001 5.31055ZM12.6001 11.5605C11.5626 11.5605 10.7251 10.723 10.7251 9.68555C10.7251 8.64805 11.5626 7.81055 12.6001 7.81055C13.6376 7.81055 14.4751 8.64805 14.4751 9.68555C14.4751 10.723 13.6376 11.5605 12.6001 11.5605Z" fill="white"/>
</svg>
