<svg width="25" height="26" viewBox="0 0 25 26" fill="none" xmlns="http://www.w3.org/2000/svg">
<path d="M12.5 0.166992C5.6 0.166992 0 5.76699 0 12.667C0 19.567 5.6 25.167 12.5 25.167C19.4 25.167 25 19.567 25 12.667C25 5.76699 19.4 0.166992 12.5 0.166992ZM6.3375 20.517C6.875 19.392 10.15 18.292 12.5 18.292C14.85 18.292 18.1375 19.392 18.6625 20.517C16.9625 21.867 14.825 22.667 12.5 22.667C10.175 22.667 8.0375 21.867 6.3375 20.517ZM20.45 18.7045C18.6625 16.5295 14.325 15.792 12.5 15.792C10.675 15.792 6.3375 16.5295 4.55 18.7045C3.22207 16.9718 2.50163 14.85 2.5 12.667C2.5 7.15449 6.9875 2.66699 12.5 2.66699C18.0125 2.66699 22.5 7.15449 22.5 12.667C22.5 14.942 21.725 17.0295 20.45 18.7045ZM12.5 5.16699C10.075 5.16699 8.125 7.11699 8.125 9.54199C8.125 11.967 10.075 13.917 12.5 13.917C14.925 13.917 16.875 11.967 16.875 9.54199C16.875 7.11699 14.925 5.16699 12.5 5.16699ZM12.5 11.417C11.4625 11.417 10.625 10.5795 10.625 9.54199C10.625 8.50449 11.4625 7.66699 12.5 7.66699C13.5375 7.66699 14.375 8.50449 14.375 9.54199C14.375 10.5795 13.5375 11.417 12.5 11.417Z" fill="#073B60"/>
</svg>
