<svg width="17" height="20" viewBox="0 0 17 20" fill="none" xmlns="http://www.w3.org/2000/svg">
<path d="M14.9304 2.66756H14.0446V0.747559H12.273V2.66756H5.18642V0.747559H3.41478V2.66756H2.52896C1.5457 2.66756 0.766182 3.53156 0.766182 4.58756L0.757324 18.0276C0.757324 18.5368 0.943978 19.0251 1.27622 19.3852C1.60847 19.7453 2.05909 19.9476 2.52896 19.9476H14.9304C15.9048 19.9476 16.7021 19.0836 16.7021 18.0276V4.58756C16.7021 3.53156 15.9048 2.66756 14.9304 2.66756ZM14.9304 18.0276H2.52896V8.42756H14.9304V18.0276ZM6.07224 12.2676H4.3006V10.3476H6.07224V12.2676ZM9.61551 12.2676H7.84387V10.3476H9.61551V12.2676ZM13.1588 12.2676H11.3871V10.3476H13.1588V12.2676ZM6.07224 16.1076H4.3006V14.1876H6.07224V16.1076ZM9.61551 16.1076H7.84387V14.1876H9.61551V16.1076ZM13.1588 16.1076H11.3871V14.1876H13.1588V16.1076Z" fill="#08253B"/>
</svg>
