<svg width="19" height="25" viewBox="0 0 19 25" fill="none" xmlns="http://www.w3.org/2000/svg">
<path d="M16.5996 9.42382C16.5996 12.4554 15.2473 13.9464 13.3063 16.0865C12.8385 16.6022 12.3366 17.1556 11.8111 17.7774C10.2924 19.5744 9.57914 21.1933 9.10716 22.2744C8.64064 21.1954 7.92604 19.5972 6.38814 17.7774C5.86267 17.1556 5.3607 16.6022 4.89294 16.0865C2.95189 13.9464 1.59961 12.4554 1.59961 9.42382C1.59961 5.39381 4.93233 2.08172 9.09961 2.08172C13.2669 2.08172 16.5996 5.39381 16.5996 9.42382Z" fill="#828F99" stroke="#575F66" stroke-width="3"/>
<path d="M11.9213 6.69912C11.4407 6.68279 10.9911 7.05834 10.6655 7.40123C10.3864 7.12365 10.0764 6.92771 9.73527 6.81342C9.95232 6.58482 10.0919 6.24193 10.0919 5.86639C10.0919 5.16428 9.64224 4.33154 9.08411 4.33154C8.52597 4.33154 8.07635 5.16428 8.07635 5.86639C8.07635 6.25826 8.21589 6.58482 8.43294 6.81342C8.09186 6.92771 7.78178 7.12365 7.50271 7.40123C7.17713 7.05834 6.72752 6.68279 6.2469 6.69912C5.34767 6.73178 4.2469 7.13998 3.09961 8.93607C3.09961 8.93607 3.73527 9.3606 4.32442 9.24631C4.91356 9.13201 5.4717 8.74014 5.95232 8.62584C6.21589 8.56053 6.51046 8.64217 6.74302 8.75646C6.65 9.08303 6.58798 9.44224 6.58798 9.83412C6.58798 10.4383 6.71201 11.0424 6.92907 11.5812C6.58798 11.6955 6.16938 11.9078 6.10736 11.9568C5.40969 12.6262 5.23914 13.6876 5.23914 14.8305C5.23914 14.8305 5.51821 14.8469 5.82829 14.7489C6.33992 14.5856 6.58798 14.0958 6.88256 13.6549C7.11511 13.312 7.37868 13.0997 7.68876 12.8875C8.10736 13.3773 8.60349 13.6876 9.09961 13.6876C9.59573 13.6876 10.1074 13.3773 10.5105 12.8875C10.8205 13.0997 11.0841 13.312 11.3167 13.6549C11.5957 14.0958 11.8593 14.5856 12.3709 14.7489C12.681 14.8469 12.9601 14.8305 12.9601 14.8305C12.9601 13.6876 12.774 12.6262 12.0919 11.9568C12.0453 11.9078 11.6112 11.6792 11.2702 11.5812C11.4717 11.0261 11.6112 10.4383 11.6112 9.83412C11.6112 9.44224 11.5492 9.08303 11.4562 8.75646C11.6888 8.65849 11.9988 8.56053 12.2469 8.62584C12.743 8.75646 13.2857 9.13201 13.8748 9.24631C14.464 9.3606 15.0996 8.93607 15.0996 8.93607C13.9523 7.15631 12.8515 6.73178 11.9523 6.69912H11.9213Z" fill="white"/>
</svg>
