<svg width="19" height="25" viewBox="0 0 19 25" fill="none" xmlns="http://www.w3.org/2000/svg">
<path d="M16.5996 9.42382C16.5996 12.4554 15.2473 13.9464 13.3063 16.0865C12.8385 16.6022 12.3366 17.1556 11.8111 17.7774C10.2924 19.5744 9.57914 21.1933 9.10716 22.2744C8.64064 21.1954 7.92604 19.5972 6.38814 17.7774C5.86267 17.1556 5.3607 16.6022 4.89294 16.0865C2.95189 13.9464 1.59961 12.4554 1.59961 9.42382C1.59961 5.39381 4.93233 2.08172 9.09961 2.08172C13.2669 2.08172 16.5996 5.39381 16.5996 9.42382Z" fill="#FFC42C" stroke="#E4AA15" stroke-width="3"/>
<path d="M13.8996 11.4547C13.9993 11.2373 14.0956 11.0163 14.1816 10.7918C14.2159 10.7041 14.2503 10.6164 14.2813 10.5287C14.326 10.406 14.3672 10.2832 14.4085 10.1605C14.4218 10.1128 14.4402 10.0667 14.455 10.0195C14.6719 9.32793 14.8291 8.62182 14.9344 7.90206C15.0967 6.7927 14.1779 5.86719 13.0567 5.86719H5.14729C4.02428 5.86719 3.1045 6.79556 3.26686 7.90678C3.37537 8.64949 3.53862 9.37767 3.76666 10.0903C3.77353 10.1149 3.78041 10.1394 3.78729 10.1605C3.82855 10.2832 3.86981 10.406 3.91451 10.5287C3.94545 10.6164 3.97984 10.7041 4.01422 10.7918C4.10018 11.0128 4.19646 11.2338 4.29617 11.4547L4.30305 11.4688C4.34775 11.567 4.38901 11.6687 4.44058 11.7634C4.86694 12.6157 5.39302 13.3909 6.08757 14.0223C6.14603 14.0749 6.20448 14.1275 6.26293 14.1766C6.287 14.1977 6.31107 14.2187 6.33514 14.2362C6.56551 14.4257 6.8062 14.5975 7.06752 14.7413C7.08714 14.7547 7.10879 14.7649 7.12974 14.776C7.18129 14.8035 7.23324 14.8273 7.28757 14.8536C7.86523 15.1482 8.47038 15.3025 9.09961 15.2955C9.72884 15.3025 10.3306 15.1482 10.9116 14.8536C10.9735 14.822 11.0389 14.7939 11.0973 14.7589C11.1169 14.7455 11.1387 14.7355 11.1593 14.7237C11.4089 14.5806 11.6427 14.4181 11.8606 14.2362C11.8847 14.2152 11.9088 14.1942 11.9328 14.1766C11.9913 14.1275 12.0498 14.0749 12.1082 14.0223C12.7993 13.3909 13.3288 12.6193 13.7552 11.7634C13.8033 11.6652 13.8446 11.567 13.8927 11.4688L13.8996 11.4547ZM12.8818 7.71217C12.8715 7.8209 12.8578 7.92964 12.8406 8.03837C12.7718 8.43122 12.7065 8.81705 12.6171 9.19236C12.5277 9.57118 12.4142 9.94298 12.2767 10.3008C12.2664 10.3253 12.2595 10.3464 12.2492 10.3709C12.2182 10.4516 12.1838 10.5358 12.146 10.6164C12.122 10.669 12.0979 10.7217 12.0738 10.7778C11.8641 11.2268 11.6131 11.6512 11.2967 12.0475C11.1455 12.2369 10.9839 12.4158 10.8051 12.5772C10.7535 12.6228 10.6985 12.6719 10.6434 12.714C10.5609 12.7806 10.475 12.8402 10.389 12.8928C10.3787 12.8999 10.3684 12.9069 10.3581 12.9139C10.2962 12.9525 10.2308 12.9875 10.1689 13.0226C10.0864 13.0647 10.0005 13.1068 9.90763 13.1419C9.69445 13.2261 9.48471 13.2752 9.28184 13.2927H9.27153C9.21308 13.2997 9.15462 13.2962 9.09617 13.2962C9.03772 13.2962 8.97927 13.2962 8.92081 13.2927H8.9105C8.70763 13.2717 8.49789 13.2226 8.28471 13.1384C8.19531 13.1033 8.10935 13.0612 8.02339 13.0191C7.9615 12.984 7.89617 12.9525 7.83428 12.9104C7.81469 12.8971 7.79327 12.8863 7.77356 12.8732C7.69819 12.8229 7.62489 12.7698 7.54889 12.714C7.49388 12.6684 7.43886 12.6228 7.38729 12.5772C7.21193 12.4193 7.04689 12.2404 6.8956 12.051C6.5827 11.6547 6.32826 11.2303 6.11852 10.7813C6.09445 10.7287 6.07038 10.6761 6.04631 10.6199C6.01193 10.5393 5.97755 10.4586 5.94316 10.3744C5.93285 10.3499 5.92597 10.3253 5.91565 10.3043C5.77812 9.94649 5.66809 9.57469 5.57525 9.19587C5.48586 8.82056 5.42053 8.43473 5.35176 8.04188C5.32986 7.86875 5.4648 7.71568 5.6393 7.71568H12.8783C12.8803 7.71568 12.8818 7.71411 12.8818 7.71217Z" fill="white"/>
</svg>
