<svg width="17" height="17" viewBox="0 0 17 17" fill="none" xmlns="http://www.w3.org/2000/svg">
<path d="M12.5996 9.50698H12.8496V9.25698V8.11412V7.86412H12.5996H9.42104V4.68555V4.43555H9.17104H8.02818H7.77818V4.68555V7.86412H4.59961H4.34961V8.11412V9.25698V9.50698H4.59961H7.77818V12.6855V12.9355H8.02818H9.17104H9.42104V12.6855V9.50698H12.5996Z" fill="#073B60" stroke="#073B60" stroke-width="0.5"/>
<path d="M14.8218 2.46332V14.9078H2.37739V2.46332H14.8218ZM15.7996 0.685547H1.39961C0.955165 0.685547 0.599609 1.0411 0.599609 1.48555V15.8855C0.599609 16.2411 0.955165 16.6855 1.39961 16.6855H15.7996C16.1552 16.6855 16.5996 16.2411 16.5996 15.8855V1.48555C16.5996 1.0411 16.1552 0.685547 15.7996 0.685547Z" fill="#073B60"/>
</svg>
