<svg width="17" height="12" viewBox="0 0 17 12" fill="none" xmlns="http://www.w3.org/2000/svg">
<path d="M0.599609 11.019H11.2663V9.24118H0.599609V11.019ZM0.599609 0.352295V2.13007H16.5996V0.352295H0.599609ZM0.599609 6.57452H16.5996V4.79674H0.599609V6.57452Z" fill="#073B60"/>
</svg>
