<svg width="22" height="16" viewBox="0 0 22 16" fill="none" xmlns="http://www.w3.org/2000/svg">
<path d="M22 15.0546H0V12.6102H22V15.0546ZM22 8.94349H0V6.49905H22V8.94349ZM22 2.83238H0V0.387939H22V2.83238Z" fill="white"/>
</svg>
